{
 "package": "postal",
 "info": {
  "title": "Postal",
  "author": "MVG",
  "category": "game",
  "version": "1.00",
  "url": "https://github.com/lantus/postal-nx/releases",
  "license": ".",
  "description": "Postal game",
  "details": "Ported to the Switch by MVG. Original game by Running with Scissors in 1997\\n\\nOriginal Source Release - https://bitbucket.org/gopostal/postal-1-open-source\\nRunning with Scissors Website - http://runningwithscissors.com/\\n\\nWide Screen and Twin Stick optimized for the Nintendo Switch :)\\nRuns on 5.x firmware.\\n\\nPlace Postal Data files in 'res' folder. You can get Postal Redux for 1.99 on GoG.com or via other means."
 },
 "changes": "",
 "assets": [
  {
   "url": "https://github.com/lantus/postal-nx/releases/download/1.00/postal-nx_V1.00.zip",
   "type": "zip",
   "zip": [
    {
     "path": "Postal/postal.nro",
     "dest": "switch/postal/postal.nro",
     "type": "update"
    },
    {
     "path": "Postal/PostalPlus/POSTAL.INI",
     "dest": "switch/postal/PostalPlus/POSTAL.INI",
     "type": "update"
    }
   ]
  },
  {
   "url": "icon.png",
   "type": "icon"
  },
  {
   "url": "screen.png",
   "type": "screenshot"
  }
 ]
}