{
 "package": "ftpd",
 "info": {
  "title": "ftpd",
  "author": "mtheall, TuxSH",
  "category": "tool",
  "version": "2.3.1",
  "url": "https://github.com/mtheall/ftpd/releases/",
  "license": "",
  "description": "FTP Server for Switch",
  "details": "This is a port of ftpd for 3DS.\\nTo use it, run the application and then connect to your Switch's IP with an ftp program on port 5000."
 },
 "changes": "2.3.1\\n\\nRebuild against latest toolchains\\nFurther improvements to overall system stability and other minor adjustments have been made to enhance the user experience\\n\\n2.3\\n\\nNew Supported Commands:\\nMLSD\\nMLST\\nSIZE\\nOther Features:\\nSwitch support\\nBacklight toggle (Start button)\\nMore compatibility with non-compliant clients\\nFurther improvements to overall system stability and other minor adjustments have been made to enhance the user experience\\n\\n2.2.0-947dc137\\nShow local IP address on Switch correctly.",
 "assets": [
  {
   "url": "https://github.com/mtheall/ftpd/releases/download/v2.3.1/ftpd.3dsx",
   "dest": "switch/ftpd.nro",
   "type": "update"
  },
  {
   "url": "icon.png",
   "type": "icon"
  }
 ]
}