{
 "package": "OpenJazzNX",
 "info": {
  "title": "OpenJazzNX",
  "author": "KranKRival",
  "category": "game",
  "version": "1.2.1",
  "url": "https://github.com/KranKRival/OpenJazzNX/releases",
  "license": "GPLv2",
  "description": "Port of OpenJazz to the nintendo switch With SDL2 Support.",
  "details": "To play the game you need to put jazz jackrabbit game files in same directory as OpenJazzNX.nro\\n\\nTHIS DOWNLOAD INCLUDES THE SHAREWARE FILES TO PLAY THE GAME !!!\\n\\ncool\\n\\nBugs:\\n\\n1.Level Bonus crashing the game while quit it or finish it, i have disabled the Bonus while playing the game it self untill i fix it\\nhmm who need that bonus doe ?! xD (game will go to next level without using the bonus) im not sure if its me or its comes from OpenJazz Engine ?!\\n\\nTodo:\\n\\nFix the Bugs (not bugsbunny) its Jack man :8\\n\\nHave Fun Jack !!!"
 },
 "changes": "v 1.2.1\\n\\nBring support for 9.0.0\\n\\nV 1.2.0\\n\\n1.Fixed sound bug on loading level\\n2.Fixed sound bug on game pause\\n3.Fixed level select font and palette\\n4.Fixed in-game menu font and palette\\n5.Fixed Load-game menu font\\n6.Fixed most font color bugs\\n7.Renamed ESC key with Minus on all screens",
 "assets": [
  {
   "url": "https://github.com/KranKRival/OpenJazzNX/releases/download/1.2.1/OpenJazzNX.zip",
   "type": "zip",
   "zip": [
    {
     "path": "switch/OpenJazzNX/FILE_ID.DIZ",
     "dest": "switch/OpenJazzNX/FILE_ID.DIZ",
     "type": "update"
    },
    {
     "path": "switch/OpenJazzNX/MAINCHAR.000",
     "dest": "switch/OpenJazzNX/MAINCHAR.000",
     "type": "update"
    },
    {
     "path": "switch/OpenJazzNX/FONTBIG.0FN",
     "dest": "switch/OpenJazzNX/FONTBIG.0FN",
     "type": "update"
    },
    {
     "path": "switch/OpenJazzNX/ENDLEVEL.PSM",
     "dest": "switch/OpenJazzNX/ENDLEVEL.PSM",
     "type": "update"
    },
    {
     "path": "switch/OpenJazzNX/ORDER.DOC",
     "dest": "switch/OpenJazzNX/ORDER.DOC",
     "type": "update"
    },
    {
     "path": "switch/OpenJazzNX/DPMI.000",
     "dest": "switch/OpenJazzNX/DPMI.000",
     "type": "update"
    },
    {
     "path": "switch/OpenJazzNX/SONG17.PSM",
     "dest": "switch/OpenJazzNX/SONG17.PSM",
     "type": "update"
    },
    {
     "path": "switch/OpenJazzNX/SYSOP.DOC",
     "dest": "switch/OpenJazzNX/SYSOP.DOC",
     "type": "update"
    },
    {
     "path": "switch/OpenJazzNX/FONTMN1.0FN",
     "dest": "switch/OpenJazzNX/FONTMN1.0FN",
     "type": "update"
    },
    {
     "path": "switch/OpenJazzNX/MANUAL.DOC",
     "dest": "switch/OpenJazzNX/MANUAL.DOC",
     "type": "update"
    },
    {
     "path": "switch/OpenJazzNX/LEVEL1.002",
     "dest": "switch/OpenJazzNX/LEVEL1.002",
     "type": "update"
    },
    {
     "path": "switch/OpenJazzNX/MDRV000D.MUS",
     "dest": "switch/OpenJazzNX/MDRV000D.MUS",
     "type": "update"
    },
    {
     "path": "switch/OpenJazzNX/BLOCKS.000",
     "dest": "switch/OpenJazzNX/BLOCKS.000",
     "type": "update"
    },
    {
     "path": "switch/OpenJazzNX/ENDING.000",
     "dest": "switch/OpenJazzNX/ENDING.000",
     "type": "update"
    },
    {
     "path": "switch/OpenJazzNX/ENDE1.0SC",
     "dest": "switch/OpenJazzNX/ENDE1.0SC",
     "type": "update"
    },
    {
     "path": "switch/OpenJazzNX/HELPME.EXE",
     "dest": "switch/OpenJazzNX/HELPME.EXE",
     "type": "update"
    },
    {
     "path": "switch/OpenJazzNX/SPRITES.000",
     "dest": "switch/OpenJazzNX/SPRITES.000",
     "type": "update"
    },
    {
     "path": "switch/OpenJazzNX/BONUS.PSM",
     "dest": "switch/OpenJazzNX/BONUS.PSM",
     "type": "update"
    },
    {
     "path": "switch/OpenJazzNX/VENDOR.DOC",
     "dest": "switch/OpenJazzNX/VENDOR.DOC",
     "type": "update"
    },
    {
     "path": "switch/OpenJazzNX/MENUSNG.PSM",
     "dest": "switch/OpenJazzNX/MENUSNG.PSM",
     "type": "update"
    },
    {
     "path": "switch/OpenJazzNX/ORDER_UK.DOC",
     "dest": "switch/OpenJazzNX/ORDER_UK.DOC",
     "type": "update"
    },
    {
     "path": "switch/OpenJazzNX/BONUSMAP.002",
     "dest": "switch/OpenJazzNX/BONUSMAP.002",
     "type": "update"
    },
    {
     "path": "switch/OpenJazzNX/LEVEL0.018",
     "dest": "switch/OpenJazzNX/LEVEL0.018",
     "type": "update"
    },
    {
     "path": "switch/OpenJazzNX/MACRO.1",
     "dest": "switch/OpenJazzNX/MACRO.1",
     "type": "update"
    },
    {
     "path": "switch/OpenJazzNX/MACRO.3",
     "dest": "switch/OpenJazzNX/MACRO.3",
     "type": "update"
    },
    {
     "path": "switch/OpenJazzNX/LEVEL0.002",
     "dest": "switch/OpenJazzNX/LEVEL0.002",
     "type": "update"
    },
    {
     "path": "switch/OpenJazzNX/MACRO.2",
     "dest": "switch/OpenJazzNX/MACRO.2",
     "type": "update"
    },
    {
     "path": "switch/OpenJazzNX/FONTMN2.0FN",
     "dest": "switch/OpenJazzNX/FONTMN2.0FN",
     "type": "update"
    },
    {
     "path": "switch/OpenJazzNX/BLOCKS.001",
     "dest": "switch/OpenJazzNX/BLOCKS.001",
     "type": "update"
    },
    {
     "path": "switch/OpenJazzNX/BLOCKS.002",
     "dest": "switch/OpenJazzNX/BLOCKS.002",
     "type": "update"
    },
    {
     "path": "switch/OpenJazzNX/MDRV002D.MUS",
     "dest": "switch/OpenJazzNX/MDRV002D.MUS",
     "type": "update"
    },
    {
     "path": "switch/OpenJazzNX/LEVEL0.000",
     "dest": "switch/OpenJazzNX/LEVEL0.000",
     "type": "update"
    },
    {
     "path": "switch/OpenJazzNX/LICENSE.DOC",
     "dest": "switch/OpenJazzNX/LICENSE.DOC",
     "type": "update"
    },
    {
     "path": "switch/OpenJazzNX/SONG0.PSM",
     "dest": "switch/OpenJazzNX/SONG0.PSM",
     "type": "update"
    },
    {
     "path": "switch/OpenJazzNX/MDRV004D.MUS",
     "dest": "switch/OpenJazzNX/MDRV004D.MUS",
     "type": "update"
    },
    {
     "path": "switch/OpenJazzNX/SPRITES.001",
     "dest": "switch/OpenJazzNX/SPRITES.001",
     "type": "update"
    },
    {
     "path": "switch/OpenJazzNX/JAZZ.EXE",
     "dest": "switch/OpenJazzNX/JAZZ.EXE",
     "type": "update"
    },
    {
     "path": "switch/OpenJazzNX/MDRVINFO.INT",
     "dest": "switch/OpenJazzNX/MDRVINFO.INT",
     "type": "update"
    },
    {
     "path": "switch/OpenJazzNX/MDRV005D.MUS",
     "dest": "switch/OpenJazzNX/MDRV005D.MUS",
     "type": "update"
    },
    {
     "path": "switch/OpenJazzNX/RTM.000",
     "dest": "switch/OpenJazzNX/RTM.000",
     "type": "update"
    },
    {
     "path": "switch/OpenJazzNX/PLANET.000",
     "dest": "switch/OpenJazzNX/PLANET.000",
     "type": "update"
    },
    {
     "path": "switch/OpenJazzNX/FONT2.0FN",
     "dest": "switch/OpenJazzNX/FONT2.0FN",
     "type": "update"
    },
    {
     "path": "switch/OpenJazzNX/BONUS.0SC",
     "dest": "switch/OpenJazzNX/BONUS.0SC",
     "type": "update"
    },
    {
     "path": "switch/OpenJazzNX/LEVEL2.000",
     "dest": "switch/OpenJazzNX/LEVEL2.000",
     "type": "update"
    },
    {
     "path": "switch/OpenJazzNX/BONUS.000",
     "dest": "switch/OpenJazzNX/BONUS.000",
     "type": "update"
    },
    {
     "path": "switch/OpenJazzNX/HELPME.DOC",
     "dest": "switch/OpenJazzNX/HELPME.DOC",
     "type": "update"
    },
    {
     "path": "switch/OpenJazzNX/PLANET.001",
     "dest": "switch/OpenJazzNX/PLANET.001",
     "type": "update"
    },
    {
     "path": "switch/OpenJazzNX/SETUP.INT",
     "dest": "switch/OpenJazzNX/SETUP.INT",
     "type": "update"
    },
    {
     "path": "switch/OpenJazzNX/FONTS.000",
     "dest": "switch/OpenJazzNX/FONTS.000",
     "type": "update"
    },
    {
     "path": "switch/OpenJazzNX/END.0SC",
     "dest": "switch/OpenJazzNX/END.0SC",
     "type": "update"
    },
    {
     "path": "switch/OpenJazzNX/PLANET.018",
     "dest": "switch/OpenJazzNX/PLANET.018",
     "type": "update"
    },
    {
     "path": "switch/OpenJazzNX/MACRO.4",
     "dest": "switch/OpenJazzNX/MACRO.4",
     "type": "update"
    },
    {
     "path": "switch/OpenJazzNX/ENDLEVEL.0SC",
     "dest": "switch/OpenJazzNX/ENDLEVEL.0SC",
     "type": "update"
    },
    {
     "path": "switch/OpenJazzNX/ORDER_DE.DOC",
     "dest": "switch/OpenJazzNX/ORDER_DE.DOC",
     "type": "update"
    },
    {
     "path": "switch/OpenJazzNX/openjazz.000",
     "dest": "switch/OpenJazzNX/openjazz.000",
     "type": "update"
    },
    {
     "path": "switch/OpenJazzNX/PLANET.002",
     "dest": "switch/OpenJazzNX/PLANET.002",
     "type": "update"
    },
    {
     "path": "switch/OpenJazzNX/SONG3.PSM",
     "dest": "switch/OpenJazzNX/SONG3.PSM",
     "type": "update"
    },
    {
     "path": "switch/OpenJazzNX/LEVEL1.000",
     "dest": "switch/OpenJazzNX/LEVEL1.000",
     "type": "update"
    },
    {
     "path": "switch/OpenJazzNX/CONTINUE.0SC",
     "dest": "switch/OpenJazzNX/CONTINUE.0SC",
     "type": "update"
    },
    {
     "path": "switch/OpenJazzNX/BOSS.PSM",
     "dest": "switch/OpenJazzNX/BOSS.PSM",
     "type": "update"
    },
    {
     "path": "switch/OpenJazzNX/FONTINY.0FN",
     "dest": "switch/OpenJazzNX/FONTINY.0FN",
     "type": "update"
    },
    {
     "path": "switch/OpenJazzNX/CHEAT.0SC",
     "dest": "switch/OpenJazzNX/CHEAT.0SC",
     "type": "update"
    },
    {
     "path": "switch/OpenJazzNX/SPRITES.018",
     "dest": "switch/OpenJazzNX/SPRITES.018",
     "type": "update"
    },
    {
     "path": "switch/OpenJazzNX/BONUSMAP.000",
     "dest": "switch/OpenJazzNX/BONUSMAP.000",
     "type": "update"
    },
    {
     "path": "switch/OpenJazzNX/PANEL.000",
     "dest": "switch/OpenJazzNX/PANEL.000",
     "type": "update"
    },
    {
     "path": "switch/OpenJazzNX/JAZZ.PIF",
     "dest": "switch/OpenJazzNX/JAZZ.PIF",
     "type": "update"
    },
    {
     "path": "switch/OpenJazzNX/MDRV003D.MUS",
     "dest": "switch/OpenJazzNX/MDRV003D.MUS",
     "type": "update"
    },
    {
     "path": "switch/OpenJazzNX/SOUNDS.000",
     "dest": "switch/OpenJazzNX/SOUNDS.000",
     "type": "update"
    },
    {
     "path": "switch/OpenJazzNX/MENU.000",
     "dest": "switch/OpenJazzNX/MENU.000",
     "type": "update"
    },
    {
     "path": "switch/OpenJazzNX/EPIC.ANS",
     "dest": "switch/OpenJazzNX/EPIC.ANS",
     "type": "update"
    },
    {
     "path": "switch/OpenJazzNX/LEVEL0.001",
     "dest": "switch/OpenJazzNX/LEVEL0.001",
     "type": "update"
    },
    {
     "path": "switch/OpenJazzNX/SETUP.EXE",
     "dest": "switch/OpenJazzNX/SETUP.EXE",
     "type": "update"
    },
    {
     "path": "switch/OpenJazzNX/INSTRUCT.0SC",
     "dest": "switch/OpenJazzNX/INSTRUCT.0SC",
     "type": "update"
    },
    {
     "path": "switch/OpenJazzNX/LEVEL1.001",
     "dest": "switch/OpenJazzNX/LEVEL1.001",
     "type": "update"
    },
    {
     "path": "switch/OpenJazzNX/BONUSMAP.001",
     "dest": "switch/OpenJazzNX/BONUSMAP.001",
     "type": "update"
    },
    {
     "path": "switch/OpenJazzNX/STARTUP.0SC",
     "dest": "switch/OpenJazzNX/STARTUP.0SC",
     "type": "update"
    },
    {
     "path": "switch/OpenJazzNX/SPRITES.002",
     "dest": "switch/OpenJazzNX/SPRITES.002",
     "type": "update"
    },
    {
     "path": "switch/OpenJazzNX/ORDER.0SC",
     "dest": "switch/OpenJazzNX/ORDER.0SC",
     "type": "update"
    },
    {
     "path": "switch/OpenJazzNX/BONUSY.000",
     "dest": "switch/OpenJazzNX/BONUSY.000",
     "type": "update"
    },
    {
     "path": "switch/OpenJazzNX/OpenJazzNX.nro",
     "dest": "switch/OpenJazzNX/OpenJazzNX.nro",
     "type": "update"
    }
   ]
  },
  {
   "url": "icon.png",
   "type": "icon"
  },
  {
   "url": "screen.png",
   "type": "screenshot"
  }
 ]
}