{
 "package": "Minesweeper",
 "info": {
  "title": "Minesweeper",
  "author": "rincew1nd",
  "category": "game",
  "version": "2.0",
  "url": "https://github.com/rincew1nd/Minesweeper-Switch/releases",
  "license": ".",
  "description": "Minesweeper for Switch",
  "details": "Basic implementation of Minesweeper in C++ and SDL2 for Nintendo Switch.\\n\\nFeel free to report bugs and contribute!\\n\\nControls\\nPlus for exit\\nTouch screen for anything else"
 },
 "changes": "",
 "assets": [
  {
   "url": "https://github.com/rincew1nd/Minesweeper-Switch/releases/download/v2.0/Minesweeper-Switch.nro",
   "dest": "switch/Minesweeper/Minesweeper-Switch.nro",
   "type": "update"
  },
  {
   "url": "icon.png",
   "type": "icon"
  }
 ]
}