{
 "package": "NXthemes_Installer",
 "info": {
  "title": "NxThemes Installer",
  "author": "exelix11",
  "category": "tool",
  "version": "4.3.1",
  "url": "https://github.com/exelix11/SwitchThemeInjector/releases",
  "license": "GPLv2",
  "description": "NxThemes Installer",
  "details": "an homebrew that can manage custom themes directly on the switch, it can install both nxtheme and szs themes.\\n\\n"
 },
 "changes": "v2.1.1\\n\\nSupport for 9.0.1, the home menu was not actually updated, all themes should work.\\nImproved navigation\\nSupport for file associations in the homebrew menu, more info here\\nFixed layout diffing in the injector\\nNote that lockscreen themes on >9.0 are still supported only on atmosphere\\n\\nv2.1\\n\\nSupport for 9.0\\nSince 9.0 the home menu will require some code patches to work properly with themes, unfortunately not all CFWs support that, currently only lockscreen themes are affected, the installer will warn you when installing a theme that requires a patch you don't have\\nThis also means that for each update of the home menu the affected parts will break for sure as the patch will have to be updated\\nUpdated the applet icons patching process and custom layout, finally the color should stay the same no matter the theme selected in the system settings.\\nAdded the option to change the order of panes via custom layouts, more info here\\nImproved UI navigation and fixed minor issues\\n\\nv2.0.1\\n\\nThis release fixes a bug that in some cases would install a theme ignoring the background image.\\nOnly themes created with the new web injector are affected by this.\\n\\nv2.0\\n\\nTouch screen support\\nNow more themes are shown in the main screen\\nAs more info has to be loaded, depending on your sd card, loading times may be a bit longer, this shouldn't be an issue though\\nIt's possible to preview the image of every nxtheme file\\nIt's possible to disable custom icons or common layouts in the settings\\n\\nv1.6-hotfix\\nFixed home menu extraction\\n\\nv1.6\\n\\nFixed home menu extraction in Atmosph\u00e8re's emunand\\nBflyt material editing in nxthemes, currently just colors but there's more to come ;)\\nCustom colors for the applet buttons via json layouts by automatically patching the bntx. Example layout\\nFinally fixed themes in the user page applet\\nMade the layout patching less strict.\\nIf you had nxthemes that did not install properly because of the firmware this should fix it\\nFixed various crashes reported by users -- Thanks !\\nUpdated a few built-in layouts\\nNote that compatibility with 8.1.0 is unknown as no CFW supports it yet. Should issues arise another update will be released to take care of that hopefully not\\n\\nv1.5\\n\\nAnimation support (bflan), now themes can contain animated parts.\\nFull 8.X support, all incompatible built-in layouts were updated\\nMost old nxthemes should still work on 8.0 as the installer will try to automatically fix them, the ones that still don't work unfortunately have to be built from scratch, info on how to fix a layout for 8.0 has been added here\\nHopefully fixed custom fonts on ReiNX\\nFinally fixed the remote install network code\\n\\nv1.4\\n\\nCustom font support ! Copy any TTF in the themes folder to install it.\\nCustom usd1 panes support for nxthemes, these kind of panes allow more customization by changing the shape of icons or add shadows. The layout editor will be updated soon.\\nSupport for the player select applet\\nSupport for nxthemes without a background image, these kind of themes just edit the layout and look good on any color setting (dark or light \"theme\" option in the console settings)\\nOther minor fixes and improvements\\nNote that custom fonts also apply to titles that load the font from the home menu, there's no way to prevent this.\\n\\n\\n\\nv1.3\\n\\nAutomatic home menu extraction, works on any firmware and any cfw, keys are not needed anymore. this means full support for 7.0.x\\nReboot to payload button for atmosphere users.\\nCustom album images are now supported, it's also possible to set a custom color for the icon with a layout (only if using a custom image)\\nCLI support for the injector on Linux.\\n\\nv1.2\\n\\nSupport for custom layouts for common.szs (all firmwares)\\nBetter support for firmwares <= 5.X\\nSupport for command line args\\nFixed many ui issues and and minor bugs\\n\\nv1.1\\n\\nMultiselect to install multiple themes at the same time\\nRemote install to install themes without having to copy them first\\nTheme background preview for nxtheme files\\nAuto extraction of the home menu directly on the console.\\nTheme shuffle support with the new Theme Switcher sysmodule, check it out here , as this is in beta please read the warnings before using it.\\nThis should also fix the darker images bug when converting to DDS",
 "assets": [
  {
   "url": "https://github.com/exelix11/SwitchThemeInjector/releases/download/v-4.3.1/NXThemesInstaller.nro",
   "dest": "switch/NXthemes_Installer/NXThemesInstaller.nro",
   "type": "update"
  },
  {
   "url": "icon.png",
   "type": "icon"
  },
  {
   "url": "screen.png",
   "type": "screenshot"
  }
 ]
}