{
 "package": "switchident-GUI",
 "info": {
  "title": "Switchident-GUI",
  "author": "Joel16",
  "category": "tool",
  "version": "0.2",
  "url": "https://github.com/joel16/SwitchIdent/releases",
  "license": "GPLv3",
  "description": "Console information",
  "details": "This is yet another identity tool that is continuing the series of <device name here>ident. The tool allows users to get various bits of information from your device, hence the name 'ident' as in identifying your device.\\n\\nPlease see the Source link for further information and usage."
 },
 "changes": "0.2\\n\\nBuilt using the latest version of DKA64 toolchain and libnx.\\nProperly display system region.\\nDisplays battery percentage and charging status.\\nDisplays battery charger type.\\nDisplays if battery charging is enabled.\\nDisplays if ample power is supplied.\\nDisplays Wireless RSSI signals and quality in percentage.\\n\\nNow uses SDL2 with GPU hardware acceleration.\\nNow uses shared font.\\nMinor UI changes. (Displays versions and icons for each field)\\n",
 "assets": [
  {
   "url": "https://github.com/joel16/SwitchIdent/releases/download/0.2/SwitchIdent_Console.nro",
   "dest": "switch/switchident-GUI/SwitchIdent_GUI.nro",
   "type": "update"
  },
  {
   "url": "icon.png",
   "type": "icon"
  },
  {
   "url": "screen.png",
   "type": "screenshot"
  }
 ]
}