{
 "package": "CalculateNX",
 "info": {
  "title": "CalculateNX",
  "author": "CompSciOrBust",
  "category": "tool",
  "version": "1.0.1",
  "url": "https://github.com/CompSciOrBust/CalculateNX/releases",
  "license": "n/a",
  "description": "A simple calculator for the Nintendo Switch",
  "details": "A simple calculator for the Nintendo Switch.\\n\\nI made this to learn how touchscreens work with SDL. Only handheld mode it supported.\\n\\nCredits\\n\\nLibNX and DevkitPro for making the toolchain.\\n\\nDalton Maag for the Ubuntu font."
 },
 "changes": "",
 "assets": [
  {
   "url": "https://github.com/CompSciOrBust/CalculateNX/releases/download/1.0.1/CalculateNX.nro",
   "dest": "switch/CalculateNX/CalculateNX.nro",
   "type": "update"
  },
  {
   "url": "icon.png",
   "type": "icon"
  },
  {
   "url": "screen.png",
   "type": "screenshot"
  }
 ]
}