{
 "package": "ipswitch",
 "info": {
  "title": "ipswitch",
  "author": "3096",
  "category": "tool",
  "version": "0.2.1",
  "url": "https://github.com/3096/ipswitch/releases",
  "license": "GPLv3",
  "description": "Use text to generate `.ips` patches to use with Atmosphere.",
  "details": "Pronounced as IPS-witch.\\n\\nUse text to generate .ips patches to use with Atmosphere.\\n\\n\\nHow to use\\n\\nThis program reads .pchtxt (patch text) files and can create .ips patches. .pchtxt is a in-house text file format to represent patches. You can find the specs for .pchtxt below.\\n\\nThe program looks for .pchtxt files with the path sdmc:/switch/ipswitch/{patch_description}/{whatever_name}.pchtxt. The dir {patch_description}/{whatever_name}.pchtxt is used for display purpose and help user to identify the patch. The {patch_description} folder name is used as the folder name in atmosphere/exefs_patches/{patch_description}.\\n\\nRun the homebrew and it will let you select a .pchtxt file to generate .ips patch with.\\n\\nStructure of .pchtxt File\\n\\n.pchtxt will be a text file. See the splat310.pchtxt for some simple Splatoon 2 3.1.0 edit I provided for example."
 },
 "changes": "",
 "assets": [
  {
   "url": "https://github.com/3096/ipswitch/releases/download/0.2.1/ipswitch-0.2.1.zip",
   "type": "zip",
   "zip": [
    {
     "path": "ipswitch/ipswitch.nro",
     "dest": "switch/ipswitch/ipswitch.nro",
     "type": "update"
    }
   ]
  },
  {
   "url": "icon.png",
   "type": "icon"
  }
 ]
}