{
 "package": "button_tester",
 "info": {
  "title": "Button Tester",
  "author": "midstor",
  "category": "tool",
  "version": "2",
  "url": "https://github.com/midstor/Button-Tester/releases",
  "license": "none",
  "description": "Test your buttons",
  "details": "Button-Tester -- Test the buttons on your console"
 },
 "changes": "Added a way to clear the screen by hitting ZR (it preserves the ZR printf), updated some of the ways it detects button hits.",
 "assets": [
  {
   "url": "https://github.com/midstor/Button-Tester/releases/download/v2/Button-Tester.V2.nro",
   "dest": "switch/button_tester/ButtonTester.nro",
   "type": "update"
  }
 ]
}