{
 "package": "CuteManga",
 "info": {
  "title": "CuteManga",
  "author": "darkxex",
  "category": "tool",
  "version": "1.0.1",
  "url": "https://github.com/darkxex/CuteManga/releases",
  "license": "GPLv3",
  "description": "manga and comic reader",
  "details": "manga and comic reader for Nintendo Switch.\\n\\nHow use\\n\\nCreate a folder in the root SD memory named \"CuteManga\" and put your \"Manga / Comic / Webtoon\" inside, if the folder has Latin characters (example: \u00f1, \u00e1, \u00ed) remove them first."
 },
 "changes": "",
 "assets": [
  {
   "url": "https://github.com/darkxex/CuteManga/releases/download/1.0.1/CuteManga.nro",
   "dest": "switch/CuteManga/CuteManga.nro",
   "type": "update"
  },
  {
   "url": "icon.png",
   "type": "icon"
  },
  {
   "url": "screen.png",
   "type": "screenshot"
  }
 ]
}