{
 "package": "2048",
 "info": {
  "title": "2048",
  "author": "BernardoGiordano",
  "category": "game",
  "version": "1.0.0-1",
  "url": "https://github.com/BernardoGiordano/2048/releases",
  "license": ".",
  "description": "Port of the game 2048",
  "details": "Open the game on the homebrew launcher and play with the arrow buttons.\\nYou can reset your game pressing B.\\nYour current gamestate will be saved when you quit the game using + and will be loaded the next time you want to play."
 },
 "changes": "",
 "assets": [
  {
   "url": "https://github.com/FlagBrew/2048/releases/download/1.0.0-1/2048.nro",
   "dest": "switch/2048.nro",
   "type": "update"
  },
  {
   "url": "icon.png",
   "type": "icon"
  },
  {
   "url": "screen.png",
   "type": "screenshot"
  }
 ]
}