{
 "package": "nxengine",
 "info": {
  "title": "NXEngine-evo",
  "author": "nxengine",
  "category": "game",
  "version": "2.6.4",
  "url": "https://github.com/nxengine/nxengine-evo/releases",
  "license": "GPLv3",
  "description": "Cave Story Port.",
  "details": "Cave Story / Doukutsu Monogatari is a Japanese freeware PC side-scrolling platformer game from 2004.\\n\\nThis is a reimplementation of the original freeware game engine, using its data files.\\nIt has nothing to do with Cave Story+ (published by Nicalis and being an actual, official Switch game)."
 },
 "changes": "2.6.4\\n\\nTons of gameplay/weapons/ai fixes and optimizations (yes, boost jumping works now)\\nAnimated portraits\\nStrafing, configurable OK/Cancel.\\nSupport for custom soundtracks and playlists.\\nConfigurable SFX/Music volume.\\nSwitch port\\nOut-of-bounds tiles support to make maps look better on high/widescreen resolutions\\nDynamic title backgrounds based on 260.rec\\nNew improved and accurate Organya/Pixtone player and overall refactored soundmanager.\\nRefactored and cleaned up renderer (should make porting to libretro/whatever easier)\\nInitial mod support (couple of mods are coming later)",
 "assets": [
  {
   "url": "https://github.com/nxengine/nxengine-evo/releases/download/v2.6.4/NXEngine-v2.6.4-Linux.tar.xz",
   "dest": "switch/nxengine-evo/NXEngine-v2.6.4-Switch.nro",
   "type": "update"
  },
  {
   "url": "icon.png",
   "type": "icon"
  },
  {
   "url": "screen.png",
   "type": "screenshot"
  }
 ]
}