{
 "package": "sdl_pong",
 "info": {
  "title": "Sdl Pong",
  "author": "Cheeze",
  "category": "game",
  "version": "1.0",
  "url": "https://github.com/I-EAT-CHEEZE-YO/switch_sdl_pong/releases",
  "license": ".",
  "description": "Sdl Pong",
  "details": "This is my pretty basic attempt at implementing pong for the nintendo switch using c++ and sdl2. Im no expert at writing programs or nothing. It still needs a lot of work, anywho enjoy!"
 },
 "changes": "",
 "assets": [
  {
   "url": "https://github.com/I-EAT-CHEEZE-YO/switch_sdl_pong/releases/download/1.0/Release.zip",
   "type": "zip",
   "zip": [
    {
     "path": "switch_sdl_pong/switch_sdl_pong.nro",
     "dest": "switch/switch_sdl_pong/switch_sdl_pong.nro",
     "type": "update"
    }
   ]
  },
  {
   "url": "icon.png",
   "type": "icon"
  },
  {
   "url": "screen.png",
   "type": "screenshot"
  }
 ]
}