{
 "package": "SlideNX",
 "info": {
  "title": "SlideNX",
  "author": "jonyluke",
  "category": "advanced",
  "version": "0.17",
  "url": "https://github.com/jonyluke/SlideNX/releases",
  "license": "GPLv2",
  "description": "change JoyCon attach/detach sound",
  "details": "A work in progress module to change JoyCon attach/detach sound\\n\\nAt the moment i was not able to mute default nintendo sound.\\n\\nHow to use\\n\\n(There are already mp3 files for testing)\\n\\nAdd the sound files you want to use to SlideNX folder\\n\\nFor changing the attach sound rename your mp3 to attach.mp3\\n\\nFor changing the disattach sound rename your mp3 to dettach.mp3\\n\\nThis is packaged for hekate , If you want it also in ReiNX copy \"slidenx.kip\" from modules folder to /ReiNX/sysmodules"
 },
 "changes": "v1.7\\n\\nAdded play random sounds option\\n\\nv1.6\\n\\nCode has been cleaned and improved (now almost all the actuals issues should be solved)\\nSwitched to NSP instead of the old KIP format\\n\\nv0.15.1\\n\\nNow working with latest version of Kosmos\\n\\nv0.15\\n\\nImprove Joycon attachment detection, now using gpio.",
 "assets": [
  {
   "url": "https://github.com/jonyluke/SlideNX/releases/download/0.17/slidenx.zip",
   "type": "zip",
   "zip": [
    {
     "path": "atmosphere/titles/420000000000000F/exefs.nsp",
     "dest": "atmosphere/titles/420000000000000F/exefs.nsp",
     "type": "update"
    },
    {
     "path": "atmosphere/titles/420000000000000F/flags/boot2.flag",
     "dest": "atmosphere/titles/420000000000000F/flags/boot2.flag",
     "type": "update"
    },
    {
     "path": "SlideNX/config.ini",
     "dest": "SlideNX/config.ini",
     "type": "update"
    },
    {
     "path": "SlideNX/sounds/attach.mp3",
     "dest": "SlideNX/sounds/attach.mp3",
     "type": "update"
    },
    {
     "path": "SlideNX/sounds/detach.mp3",
     "dest": "SlideNX/sounds/detach.mp3",
     "type": "update"
    }
   ]
  }
 ]
}