{
 "package": "100boxesNX",
 "info": {
  "title": "100 Boxes NX",
  "author": "Cid2mizard",
  "category": "game",
  "version": "1.1",
  "url": "https://github.com/Cid2mizard/100_Boxes_NX/releases",
  "license": "MIT",
  "description": "A simple yet challenging puzzle game.",
  "details": "100 Boxes NX is a simple yet challenging puzzle game.\\n\\nGameplay: - Fill all the boxes of a 10x10 grid. If you move horizontally or vertically you must skip 2 boxes. If you move diagonally you must skip 1 box.\\n\\nControls : - Touch or D-pad + A : Discover Case - B : New Game - Plus : Exit\\n\\nOriginal game : - http://helmet.kafuka.org/"
 },
 "changes": "1.1\\n\\nAdd music by Eric Matyas (www.soundimage.org).\\nUpdate with last sdl2.\\nClean code.\\n\\n1.0\\n\\nInitial Release",
 "assets": [
  {
   "url": "https://github.com/Cid2mizard/100_Boxes_NX/releases/download/1.1/100_Boxes_NX.rar",
   "dest": "switch/100_Boxes_NX/100",
   "type": "update"
  },
  {
   "url": "icon.png",
   "type": "icon"
  },
  {
   "url": "screen.png",
   "type": "screenshot"
  }
 ]
}