{
 "package": "PacManNX",
 "info": {
  "title": "PacManNX",
  "author": "KranKRival",
  "category": "game",
  "version": "1.0.0",
  "url": "https://github.com/KranKRival/PacManNX/releases",
  "license": "GPLv2",
  "description": "PacMan Clone",
  "details": "A Clone of original PacMan For The Nintendo Switch made in C++ using SDL2"
 },
 "changes": "",
 "assets": [
  {
   "url": "https://github.com/KranKRival/PacManNX/releases/download/1.0.0/PacManNX.zip",
   "type": "zip",
   "zip": [
    {
     "path": "PacManNX/PacManNX.nro",
     "dest": "switch/PacManNX/PacManNX.nro",
     "type": "update"
    },
    {
     "path": "PacManNX/assets/gfx/pacman_links_1.png",
     "dest": "switch/PacManNX/assets/gfx/pacman_links_1.png",
     "type": "update"
    },
    {
     "path": "PacManNX/assets/gfx/blinky_2.png",
     "dest": "switch/PacManNX/assets/gfx/blinky_2.png",
     "type": "update"
    },
    {
     "path": "PacManNX/assets/gfx/blinky_1.png",
     "dest": "switch/PacManNX/assets/gfx/blinky_1.png",
     "type": "update"
    },
    {
     "path": "PacManNX/assets/gfx/strawberry.png",
     "dest": "switch/PacManNX/assets/gfx/strawberry.png",
     "type": "update"
    },
    {
     "path": "PacManNX/assets/gfx/superpille_3.png",
     "dest": "switch/PacManNX/assets/gfx/superpille_3.png",
     "type": "update"
    },
    {
     "path": "PacManNX/assets/gfx/pille.png",
     "dest": "switch/PacManNX/assets/gfx/pille.png",
     "type": "update"
    },
    {
     "path": "PacManNX/assets/gfx/pacman.png",
     "dest": "switch/PacManNX/assets/gfx/pacman.png",
     "type": "update"
    },
    {
     "path": "PacManNX/assets/gfx/pear.png",
     "dest": "switch/PacManNX/assets/gfx/pear.png",
     "type": "update"
    },
    {
     "path": "PacManNX/assets/gfx/inky_2.png",
     "dest": "switch/PacManNX/assets/gfx/inky_2.png",
     "type": "update"
    },
    {
     "path": "PacManNX/assets/gfx/augen_2.png",
     "dest": "switch/PacManNX/assets/gfx/augen_2.png",
     "type": "update"
    },
    {
     "path": "PacManNX/assets/gfx/superpille_2.png",
     "dest": "switch/PacManNX/assets/gfx/superpille_2.png",
     "type": "update"
    },
    {
     "path": "PacManNX/assets/gfx/clyde_2.png",
     "dest": "switch/PacManNX/assets/gfx/clyde_2.png",
     "type": "update"
    },
    {
     "path": "PacManNX/assets/gfx/title_pacman.png",
     "dest": "switch/PacManNX/assets/gfx/title_pacman.png",
     "type": "update"
    },
    {
     "path": "PacManNX/assets/gfx/pacman_oben_1.png",
     "dest": "switch/PacManNX/assets/gfx/pacman_oben_1.png",
     "type": "update"
    },
    {
     "path": "PacManNX/assets/gfx/pacman_die_4.png",
     "dest": "switch/PacManNX/assets/gfx/pacman_die_4.png",
     "type": "update"
    },
    {
     "path": "PacManNX/assets/gfx/orange.png",
     "dest": "switch/PacManNX/assets/gfx/orange.png",
     "type": "update"
    },
    {
     "path": "PacManNX/assets/gfx/key.png",
     "dest": "switch/PacManNX/assets/gfx/key.png",
     "type": "update"
    },
    {
     "path": "PacManNX/assets/gfx/pacman_oben_2.png",
     "dest": "switch/PacManNX/assets/gfx/pacman_oben_2.png",
     "type": "update"
    },
    {
     "path": "PacManNX/assets/gfx/pacman_die_3.png",
     "dest": "switch/PacManNX/assets/gfx/pacman_die_3.png",
     "type": "update"
    },
    {
     "path": "PacManNX/assets/gfx/escaping_ghost_2.png",
     "dest": "switch/PacManNX/assets/gfx/escaping_ghost_2.png",
     "type": "update"
    },
    {
     "path": "PacManNX/assets/gfx/pacman_rechts_1.png",
     "dest": "switch/PacManNX/assets/gfx/pacman_rechts_1.png",
     "type": "update"
    },
    {
     "path": "PacManNX/assets/gfx/pacman_unten_1.png",
     "dest": "switch/PacManNX/assets/gfx/pacman_unten_1.png",
     "type": "update"
    },
    {
     "path": "PacManNX/assets/gfx/augen_0.png",
     "dest": "switch/PacManNX/assets/gfx/augen_0.png",
     "type": "update"
    },
    {
     "path": "PacManNX/assets/gfx/superpille_1.png",
     "dest": "switch/PacManNX/assets/gfx/superpille_1.png",
     "type": "update"
    },
    {
     "path": "PacManNX/assets/gfx/escaping_ghost_white_1.png",
     "dest": "switch/PacManNX/assets/gfx/escaping_ghost_white_1.png",
     "type": "update"
    },
    {
     "path": "PacManNX/assets/gfx/pacman_die_8.png",
     "dest": "switch/PacManNX/assets/gfx/pacman_die_8.png",
     "type": "update"
    },
    {
     "path": "PacManNX/assets/gfx/hintergrund2.png",
     "dest": "switch/PacManNX/assets/gfx/hintergrund2.png",
     "type": "update"
    },
    {
     "path": "PacManNX/assets/gfx/cherry.png",
     "dest": "switch/PacManNX/assets/gfx/cherry.png",
     "type": "update"
    },
    {
     "path": "PacManNX/assets/gfx/pacman_die_1.png",
     "dest": "switch/PacManNX/assets/gfx/pacman_die_1.png",
     "type": "update"
    },
    {
     "path": "PacManNX/assets/gfx/escaping_ghost_white_2.png",
     "dest": "switch/PacManNX/assets/gfx/escaping_ghost_white_2.png",
     "type": "update"
    },
    {
     "path": "PacManNX/assets/gfx/pacman_die_6.png",
     "dest": "switch/PacManNX/assets/gfx/pacman_die_6.png",
     "type": "update"
    },
    {
     "path": "PacManNX/assets/gfx/pacman_rechts_2.png",
     "dest": "switch/PacManNX/assets/gfx/pacman_rechts_2.png",
     "type": "update"
    },
    {
     "path": "PacManNX/assets/gfx/pacman_die_10.png",
     "dest": "switch/PacManNX/assets/gfx/pacman_die_10.png",
     "type": "update"
    },
    {
     "path": "PacManNX/assets/gfx/pacman_links_2.png",
     "dest": "switch/PacManNX/assets/gfx/pacman_links_2.png",
     "type": "update"
    },
    {
     "path": "PacManNX/assets/gfx/pacman_die_9_alt.png",
     "dest": "switch/PacManNX/assets/gfx/pacman_die_9_alt.png",
     "type": "update"
    },
    {
     "path": "PacManNX/assets/gfx/banana.png",
     "dest": "switch/PacManNX/assets/gfx/banana.png",
     "type": "update"
    },
    {
     "path": "PacManNX/assets/gfx/pacman_die_9.png",
     "dest": "switch/PacManNX/assets/gfx/pacman_die_9.png",
     "type": "update"
    },
    {
     "path": "PacManNX/assets/gfx/escaping_ghost_1.png",
     "dest": "switch/PacManNX/assets/gfx/escaping_ghost_1.png",
     "type": "update"
    },
    {
     "path": "PacManNX/assets/gfx/pacman_unten_2.png",
     "dest": "switch/PacManNX/assets/gfx/pacman_unten_2.png",
     "type": "update"
    },
    {
     "path": "PacManNX/assets/gfx/pacman_desktop.png",
     "dest": "switch/PacManNX/assets/gfx/pacman_desktop.png",
     "type": "update"
    },
    {
     "path": "PacManNX/assets/gfx/augen_1.png",
     "dest": "switch/PacManNX/assets/gfx/augen_1.png",
     "type": "update"
    },
    {
     "path": "PacManNX/assets/gfx/apple.png",
     "dest": "switch/PacManNX/assets/gfx/apple.png",
     "type": "update"
    },
    {
     "path": "PacManNX/assets/gfx/pinky_1.png",
     "dest": "switch/PacManNX/assets/gfx/pinky_1.png",
     "type": "update"
    },
    {
     "path": "PacManNX/assets/gfx/pacman_die_5.png",
     "dest": "switch/PacManNX/assets/gfx/pacman_die_5.png",
     "type": "update"
    },
    {
     "path": "PacManNX/assets/gfx/pinky_2.png",
     "dest": "switch/PacManNX/assets/gfx/pinky_2.png",
     "type": "update"
    },
    {
     "path": "PacManNX/assets/gfx/hintergrund_schienen.png",
     "dest": "switch/PacManNX/assets/gfx/hintergrund_schienen.png",
     "type": "update"
    },
    {
     "path": "PacManNX/assets/gfx/grapes.png",
     "dest": "switch/PacManNX/assets/gfx/grapes.png",
     "type": "update"
    },
    {
     "path": "PacManNX/assets/gfx/inky_1.png",
     "dest": "switch/PacManNX/assets/gfx/inky_1.png",
     "type": "update"
    },
    {
     "path": "PacManNX/assets/gfx/pacman_die_2.png",
     "dest": "switch/PacManNX/assets/gfx/pacman_die_2.png",
     "type": "update"
    },
    {
     "path": "PacManNX/assets/gfx/clyde_1.png",
     "dest": "switch/PacManNX/assets/gfx/clyde_1.png",
     "type": "update"
    },
    {
     "path": "PacManNX/assets/gfx/pacman_die_7.png",
     "dest": "switch/PacManNX/assets/gfx/pacman_die_7.png",
     "type": "update"
    },
    {
     "path": "PacManNX/assets/gfx/augen_3.png",
     "dest": "switch/PacManNX/assets/gfx/augen_3.png",
     "type": "update"
    },
    {
     "path": "PacManNX/assets/txt/gamecontrollerdb.txt",
     "dest": "switch/PacManNX/assets/txt/gamecontrollerdb.txt",
     "type": "update"
    },
    {
     "path": "PacManNX/assets/fonts/Makefile.in",
     "dest": "switch/PacManNX/assets/fonts/Makefile.in",
     "type": "update"
    },
    {
     "path": "PacManNX/assets/fonts/Cheapmot.TTF",
     "dest": "switch/PacManNX/assets/fonts/Cheapmot.TTF",
     "type": "update"
    },
    {
     "path": "PacManNX/assets/fonts/Makefile.am",
     "dest": "switch/PacManNX/assets/fonts/Makefile.am",
     "type": "update"
    },
    {
     "path": "PacManNX/assets/sounds/fruit.wav",
     "dest": "switch/PacManNX/assets/sounds/fruit.wav",
     "type": "update"
    },
    {
     "path": "PacManNX/assets/sounds/insert_coin.wav",
     "dest": "switch/PacManNX/assets/sounds/insert_coin.wav",
     "type": "update"
    },
    {
     "path": "PacManNX/assets/sounds/ghost_eat_1.wav",
     "dest": "switch/PacManNX/assets/sounds/ghost_eat_1.wav",
     "type": "update"
    },
    {
     "path": "PacManNX/assets/sounds/death_3.wav",
     "dest": "switch/PacManNX/assets/sounds/death_3.wav",
     "type": "update"
    },
    {
     "path": "PacManNX/assets/sounds/Makefile.in",
     "dest": "switch/PacManNX/assets/sounds/Makefile.in",
     "type": "update"
    },
    {
     "path": "PacManNX/assets/sounds/intermission.wav",
     "dest": "switch/PacManNX/assets/sounds/intermission.wav",
     "type": "update"
    },
    {
     "path": "PacManNX/assets/sounds/large_pellet_loop.wav",
     "dest": "switch/PacManNX/assets/sounds/large_pellet_loop.wav",
     "type": "update"
    },
    {
     "path": "PacManNX/assets/sounds/munch_b.wav",
     "dest": "switch/PacManNX/assets/sounds/munch_b.wav",
     "type": "update"
    },
    {
     "path": "PacManNX/assets/sounds/siren_fast.wav",
     "dest": "switch/PacManNX/assets/sounds/siren_fast.wav",
     "type": "update"
    },
    {
     "path": "PacManNX/assets/sounds/siren_slow.wav",
     "dest": "switch/PacManNX/assets/sounds/siren_slow.wav",
     "type": "update"
    },
    {
     "path": "PacManNX/assets/sounds/Makefile.am",
     "dest": "switch/PacManNX/assets/sounds/Makefile.am",
     "type": "update"
    },
    {
     "path": "PacManNX/assets/sounds/ghost_eat_2.wav",
     "dest": "switch/PacManNX/assets/sounds/ghost_eat_2.wav",
     "type": "update"
    },
    {
     "path": "PacManNX/assets/sounds/munch_a.wav",
     "dest": "switch/PacManNX/assets/sounds/munch_a.wav",
     "type": "update"
    },
    {
     "path": "PacManNX/assets/sounds/siren_medium.wav",
     "dest": "switch/PacManNX/assets/sounds/siren_medium.wav",
     "type": "update"
    },
    {
     "path": "PacManNX/assets/sounds/death_2.wav",
     "dest": "switch/PacManNX/assets/sounds/death_2.wav",
     "type": "update"
    },
    {
     "path": "PacManNX/assets/sounds/ghost_eat_3.wav",
     "dest": "switch/PacManNX/assets/sounds/ghost_eat_3.wav",
     "type": "update"
    },
    {
     "path": "PacManNX/assets/sounds/intro.wav",
     "dest": "switch/PacManNX/assets/sounds/intro.wav",
     "type": "update"
    },
    {
     "path": "PacManNX/assets/sounds/large_pellet_blip.wav",
     "dest": "switch/PacManNX/assets/sounds/large_pellet_blip.wav",
     "type": "update"
    },
    {
     "path": "PacManNX/assets/sounds/extra_man.wav",
     "dest": "switch/PacManNX/assets/sounds/extra_man.wav",
     "type": "update"
    },
    {
     "path": "PacManNX/assets/sounds/death_1.wav",
     "dest": "switch/PacManNX/assets/sounds/death_1.wav",
     "type": "update"
    }
   ]
  },
  {
   "url": "icon.png",
   "type": "icon"
  },
  {
   "url": "screen.png",
   "type": "screenshot"
  }
 ]
}