{
 "package": "PAUSE-nx",
 "info": {
  "title": "PAUSE-nx",
  "author": "hamhub7",
  "category": "advanced",
  "version": "1.2",
  "url": "https://github.com/hamhub7/PAUSE-nx/releases",
  "license": "n/a",
  "description": "Pauses the switch when the left dpad button is held",
  "details": "To use this program, connect a USB keyboard to your pc and press the down arrow key to pause and unpause the game you are in. The right arrow key advances the game by one frame. Games can buffer inputs if you hold then during the pause then either unpause or frame advance. Each segment of puse to unpause is recorded in sdmc:/recordings labaled with the time and date. The files are in nx-TAS format, so you can replay your recorded TASes. Vists https://github.com/hamhub7/nx-TAS to dowload nx-TAS"
 },
 "changes": "1.2\\n\\nThis update records all inputs sent by the player for one \"segment\" in nx-TAS format\\n\\nRefer to the readme for instructions on how to use.",
 "assets": [
  {
   "url": "https://github.com/hamhub7/PAUSE-nx/releases/download/1.2/PAUSE-nx.v1.2.zip",
   "type": "zip",
   "zip": [
    {
     "path": "atmosphere/titles/0100000000000125/exefs.nsp",
     "dest": "atmosphere/titles/0100000000000125/exefs.nsp",
     "type": "update"
    },
    {
     "path": "atmosphere/titles/0100000000000125/flags/boot2.flag",
     "dest": "atmosphere/titles/0100000000000125/flags/boot2.flag",
     "type": "update"
    }
   ]
  }
 ]
}