{
 "package": "DokkaebiHack",
 "info": {
  "title": "Dokkaebi Hack",
  "author": "NicholeMattera",
  "category": "_misc",
  "version": "2.0.0",
  "url": "https://github.com/StevenMattera/DokkaebiHack/releases",
  "license": "GPLv2",
  "description": "A POC animation",
  "details": "Animated Demo using SDL on the Switch.\\n\\nInitial Release. There is no vibration and you can press 'A' to quit."
 },
 "changes": "v2.0.0\\n\\nNot exactly sure why I'm updating this, however I did...\\n\\nAll new code. (Preview of whats to come for Kosmos Updater 4.0 code-wise)\\nRuns smoother.\\nBackground on the very bottom and very right are now filled in.",
 "assets": [
  {
   "url": "https://github.com/NicholeMattera/DokkaebiHack/releases/download/v2.0.0/DokkaebiHack.nro",
   "dest": "switch/DokkaebiHack/DokkaebiHack.nro",
   "type": "update"
  },
  {
   "url": "icon.png",
   "type": "icon"
  }
 ]
}