{
 "package": "argon-nx",
 "info": {
  "title": "argon-nx",
  "author": "Guillem96",
  "category": "advanced",
  "version": "1.1-alpha",
  "url": "https://github.com/Guillem96/argon-nx/releases",
  "license": "GPLv3",
  "description": "GUI payload chainloader",
  "details": "What Argon is?\\nArgon is a noble gas. Argon comes from Greek Argon, neuter of argos meaning lazy , idle or inactive. Argon recieved this name because its chemical inactivity.\\n\\nArgon NX is an immutable payload which is injected to your Nintendo Switch via Fusee Gelee exploit.\\n\\nPurpose\\nThe purpose of Argon NX is to stay immutable, so you can always inject it, without caring about other payloads getting updated (Always use ArgonNX for TegraSmash, TegraGUI, TrinkedM0 ...).\\n\\nHow can it be?\\nWhen Argon NX is injected it automatically launches the payload.bin loacted at argon directory on your SD Card root.\\n\\nIf payload.bin is not present or VOOLUME DOWN button is pressed on payload injection, Argon NX will list all payloads located at argon/payloads, and you will be able tp select one of theme to launch it.\\n\\nIf you want, you can choose a payload logo by adding a 32 argb bmp(200*200) file named as the payload to argon/logos directory.\\n\\nCompatibility\\nWorks with all cfw payloads. Not tested with TeamXecuter SXOS payloat but it should work too.\\n\\n"
 },
 "changes": "1.1-alpha\\n\\nFixing critical bug. Now ArgonNX launches using any payload sender.\\nArgon now is composed by 2 payloads (2 stages).\\nFirst stage configures hardware\\nSecond stage loads the GUI\\nBootlogo/splash and wait until GUI is loaded.\\nImprove system stability to enhance user experience.\\n\\n1.0-alpha\\n\\nArgonNX's UI has been rewritten using LittlevGL library. This rewrite has a lot of benefits. Some benefits include:\\nPrettier font\\nFaster rendering\\nBetter touch support\\nIn general terms improves UX\\nNow payloads are listed inside tabviews where each tab contains a group of 4 payloads.\\nNew tab of tools. By now tools only are related to reboot stuff (reboot to rcm, power off, reboot to ofw)\\nBackground size back to 1280*720. No more weird image flippings.\\nArgonNX Command Line Interface to simplify the process to create logos and backgrounds.\\nNow there is no need to declare a default.bmp logo inside the argon/logos directory.\\nImprove system stability to enhance user experience.\\n\\nv0.3\\n\\nNow background must be in a vertical position. New background size must be smaller or equal than 720x1280. (Performance reasons)\\nUsing double buffering for rendering in order to avoid flickering and also improve performance.\\nFully touch support. Thanks to @pixel-stuck\\nNow payloads are sorted by name.\\nCorrectly deallocate argon-nx from memory when launching payloads.\\nImprove system stability to enhance user experience.\\n\\nv0.2\\n\\nargon-nx.bin: ArgonNX payload ready to inject it via TegraGUI or TegraSmash.\\nsd-files.zip: Basic structure of ArgonNX for sd card. Includes a custom background, minerva training and a custom title.",
 "assets": [
  {
   "url": "https://github.com/Guillem96/argon-nx/releases/download/1.1-alpha/argon-nx.zip",
   "type": "zip",
   "zip": [
    {
     "path": "argon/sys/argon-nx-gui.bin",
     "dest": "argon/sys/argon-nx-gui.bin",
     "type": "update"
    },
    {
     "path": "argon/sys/resources.argon",
     "dest": "argon/sys/resources.argon",
     "type": "update"
    },
    {
     "path": "argon/sys/minerva.bso",
     "dest": "argon/sys/minerva.bso",
     "type": "update"
    },
    {
     "path": "argon/logos/atmosphere.bmp",
     "dest": "argon/logos/atmosphere.bmp",
     "type": "update"
    },
    {
     "path": "argon/logos/sxos.bmp",
     "dest": "argon/logos/sxos.bmp",
     "type": "update"
    },
    {
     "path": "argon/logos/reinx.bmp",
     "dest": "argon/logos/reinx.bmp",
     "type": "update"
    },
    {
     "path": "argon/logos/hekate.bmp",
     "dest": "argon/logos/hekate.bmp",
     "type": "update"
    },
    {
     "path": "argon/background.bmp",
     "dest": "argon/background.bmp",
     "type": "update"
    },
    {
     "path": "argon/splash.bmp",
     "dest": "argon/splash.bmp",
     "type": "update"
    },
    {
     "path": "argon-nx.bin",
     "dest": "argon-nx.bin",
     "type": "update"
    }
   ]
  },
  {
   "url": "icon.png",
   "type": "icon"
  },
  {
   "url": "screen.png",
   "type": "screenshot"
  }
 ]
}