{
 "package": "emummc-toggle",
 "info": {
  "title": "emummc-toggle",
  "author": "LittlestCube",
  "category": "tool",
  "version": "0.0.1",
  "url": "https://github.com/LittlestCube/emummc-toggle/releases",
  "license": "n/a",
  "description": "emummc-toggle",
  "details": "Finished this right before I saw the hekate 5.0.0 update. :(\\n\\nNot to mention the worst code ever written, completely threw DRY out the window."
 },
 "changes": "",
 "assets": [
  {
   "url": "https://github.com/LittlestCube/emummc-toggle/releases/download/0.0.1/emummc-toggle.nacp",
   "dest": "switch/emummc-toggle/emummc-toggle.nro",
   "type": "update"
  },
  {
   "url": "icon.png",
   "type": "icon"
  }
 ]
}